<?xml version="1.0"?>
<VTKFile type="UnstructuredGrid" version="1.0" byte_order="LittleEndian" header_type="UInt64">
  <UnstructuredGrid>
    <Piece NumberOfPoints="16" NumberOfCells="2">
      <PointData>
      </PointData>
      <CellData>
        <DataArray type="Int32" Name="nlocal" format="binary" RangeMin="2" RangeMax="117">
          CAAAAAAAAAB1AAAAAgAAAA==
        </DataArray>
        <DataArray type="Int32" Name="proc" format="binary" RangeMin="0" RangeMax="1">
          CAAAAAAAAAAAAAAAAQAAAA==
        </DataArray>
      </CellData>
      <Points>
        <DataArray type="Float32" Name="Points" NumberOfComponents="3" format="binary" RangeMin="1.7320508307e-10" RangeMax="0.24494897793">
          wAAAAAAAAAD/5tuu/+bbrv/m267/5tuu/+bbrs3MzD3/5tuuzczMPf/m267/5tuuzczMPc3MzD3NzMw9/+bbrv/m267NzMw9/+bbrs3MzD3NzMw9zczMPf/m267NzMw9zczMPc3MzD3/5tuu/+bbrs3MzD3/5tuu/+bbrs3MTD7/5tuuzczMPc3MzD3/5tuuzczMPc3MTD7NzMw9/+bbrs3MzD3NzMw9/+bbrs3MTD7NzMw9zczMPc3MzD3NzMw9zczMPc3MTD4=
        </DataArray>
      </Points>
      <Cells>
        <DataArray type="Int64" Name="connectivity" format="binary" RangeMin="0" RangeMax="15">
          gAAAAAAAAAAAAAAAAAAAAAEAAAAAAAAAAgAAAAAAAAADAAAAAAAAAAQAAAAAAAAABQAAAAAAAAAGAAAAAAAAAAcAAAAAAAAACAAAAAAAAAAJAAAAAAAAAAoAAAAAAAAACwAAAAAAAAAMAAAAAAAAAA0AAAAAAAAADgAAAAAAAAAPAAAAAAAAAA==
        </DataArray>
        <DataArray type="Int64" Name="offsets" format="binary" RangeMin="8" RangeMax="16">
          EAAAAAAAAAAIAAAAAAAAABAAAAAAAAAA
        </DataArray>
        <DataArray type="UInt8" Name="types" format="binary" RangeMin="11" RangeMax="11">
          AgAAAAAAAAALCw==
        </DataArray>
      </Cells>
    </Piece>
  </UnstructuredGrid>
</VTKFile>
