<?xml version="1.0"?>
<VTKFile type="PolyData" version="1.0" byte_order="LittleEndian" header_type="UInt64">
  <PolyData>
    <Piece NumberOfPoints="18" NumberOfVerts="0" NumberOfLines="0" NumberOfStrips="0" NumberOfPolys="6">
      <PointData>
      </PointData>
      <CellData>
      </CellData>
      <Points>
        <DataArray type="Float32" Name="Points" NumberOfComponents="3" format="ascii" RangeMin="1.2124355447" RangeMax="1.2124355447">
          0.69999998808 0.69999998808 -0.69999998808 0.69999998808 -0.69999998808 -0.69999998808
          -0.69999998808 -0.69999998808 -0.69999998808 -0.69999998808 -0.69999998808 -0.69999998808
          0.69999998808 0.69999998808 -0.69999998808 -0.69999998808 0.69999998808 -0.69999998808
          0.69999998808 0.69999998808 0.69999998808 0.69999998808 0.69999998808 -0.69999998808
          0.69999998808 -0.69999998808 -0.69999998808 -0.69999998808 -0.69999998808 -0.69999998808
          0.69999998808 -0.69999998808 0.69999998808 0.69999998808 -0.69999998808 -0.69999998808
          -0.69999998808 0.69999998808 0.69999998808 -0.69999998808 0.69999998808 -0.69999998808
          -0.69999998808 -0.69999998808 -0.69999998808 -0.69999998808 0.69999998808 -0.69999998808
          0.69999998808 0.69999998808 0.69999998808 0.69999998808 0.69999998808 -0.69999998808
        </DataArray>
      </Points>
      <Verts>
        <DataArray type="Int64" Name="connectivity" format="ascii" RangeMin="1e+299" RangeMax="-1e+299">
        </DataArray>
        <DataArray type="Int64" Name="offsets" format="ascii" RangeMin="1e+299" RangeMax="-1e+299">
        </DataArray>
      </Verts>
      <Lines>
        <DataArray type="Int64" Name="connectivity" format="ascii" RangeMin="1e+299" RangeMax="-1e+299">
        </DataArray>
        <DataArray type="Int64" Name="offsets" format="ascii" RangeMin="1e+299" RangeMax="-1e+299">
        </DataArray>
      </Lines>
      <Strips>
        <DataArray type="Int64" Name="connectivity" format="ascii" RangeMin="1e+299" RangeMax="-1e+299">
        </DataArray>
        <DataArray type="Int64" Name="offsets" format="ascii" RangeMin="1e+299" RangeMax="-1e+299">
        </DataArray>
      </Strips>
      <Polys>
        <DataArray type="Int64" Name="connectivity" format="ascii" RangeMin="0" RangeMax="17">
          0 1 2 3 4 5
          6 7 8 9 10 11
          12 13 14 15 16 17
        </DataArray>
        <DataArray type="Int64" Name="offsets" format="ascii" RangeMin="3" RangeMax="18">
          3 6 9 12 15 18
        </DataArray>
      </Polys>
    </Piece>
  </PolyData>
</VTKFile>
